<Government Sources>,<Institutional Sources>,<Foreign Sources>,<Donations>,<Sales>,<Interest>,<Other Income>,<Total Income>,<Activities Expenses>,<Staff Cost>,<Travel>,<Funds Raised>,<Overhead>,<Depreciation>,<Other Expenses>,<Total Expenses>,<Fixed Assets>,<Current Assets>,<Cash/Bank>,<Investments>,<Accumulated Deficits>,<Total Assets>,<Capital>,<General Funds>,<Earmarked Funds>,<Loans>,<Current Liabilities>,<Total Liabilities>
0,0,0,"150,000",0,"37,293","55,507","242,800","1,258,280",0,0,0,0,0,0,"1,258,280",0,"36,419","103,030","446,608","6,948,943","7,535,000","7,535,000",0,0,0,0,"7,535,000"
,,,,,,,,,,,,,,,,,,,,,,,,,,,
,,,,,,,,,,,,,,,,,,,,,,,,,,,
,,,,,,,,,,,,,,,,,,,,,,,,,,,
,,,,,,,,,,,,,,,,,,,,,,,,,,,
,,First row shows what should be writtrn in particular column and second row is an example,,,,,,,,,,,,,,,,,,,,,,,,,
,,Remove all data in this file and write data accordingly as shown and upload.,,,,,,,,,,,,,,,,,,,,,,,,,
